# Paths are relative to the location of this (.prj) file

# --------------------------------------------------------------------------------------------------
# board io description

vhdl work "../n2.vhd"

# --------------------------------------------------------------------------------------------------
# vhdl libs [user defined]

# user design
vhdl work "./ps2.vhd"
vhdl work "./seg7.vhd"
vhdl work "./mouse_test.vhd"

# toplevel module
vhdl work "../top.vhd"

# Do not sort compile order (compile the files in the order provided in the previous command)
nosort
