# --------------------------------------------------------------------------------------------------
# vhdl libs [user defined]
vhdl work "../lib/eewiki/debounce.vhd"
vhdl work "../lib/eewiki/ps2_mouse.vhd"
vhdl work "../lib/eewiki/ps2_transceiver.vhd"

# board io description
vhdl work "../n2.vhd"

# user design
vhdl work "./main.vhd"

# toplevel module
vhdl work "../top.vhd"

# Do not sort compile order (compile the files in the order provided in the previous command)
nosort
