# Paths are relative to the location of this (.prj) file

# --------------------------------------------------------------------------------------------------
# board io description

vhdl work "../n2.vhd"

# --------------------------------------------------------------------------------------------------
# vhdl libs [user defined]
vhdl work "../lib/rangelib.vhd"
vhdl work "../lib/comb.vhd"
vhdl work "../lib/numo.vhd"

# user design 
vhdl work "./main.vhd"

# toplevel module
vhdl work "../top.vhd"

# Do not sort compile order (compile the files in the order provided in the previous command)
nosort
